SCIENVI201 Ecology Spring 2022
…
Lets see how does the Nitrogen deposition map looks like. At first, we tell R which data do we want to work with, Nitrogen_2018. Now, looking at the code, we can see that we connect multiple functions with this magical %>% sign. This symbol %>% is called a pipe. A pipe allows us to connect multiple operations in a simple format so it is easy to understand and read. If you are interested in reading more about pipes, you can do so here. Next, we rewrite the Nitrogen_2018 data into a data frame, table structure of data. Followingly, we rewrite into a tibble, a simple version of data frame which only shows first 10 rows of a data set. Now, we can see our tibble in the console. Specifically, we can see three variables:

x variable (longitude),

y variable (latitude),

depo_ntot_2018 variable (the level of deposition in mol/(ha.yea)).

# library used: library(tidyverse)
Nitrogen_2018 %>% 
  as.data.frame(xy = T) %>% 
  as_tibble() 

## # A tibble: 43,959 x 3
##         x      y depo_ntot_2018
##     <dbl>  <dbl>          <dbl>
##  1 236500 621500           602.
##  2 237500 621500           605.
##  3 238500 621500           608.
##  4 213500 620500           537 
##  5 214500 620500           542.
##  6 215500 620500           546.
##  7 216500 620500           550.
##  8 217500 620500           551.
##  9 218500 620500           555.
## 10 219500 620500           556.
## # ... with 43,949 more rows
…
