…
    ## Importance of components:
    ##                            PC1     PC2     PC3
    ## Standard deviation     19.4919 1.90658 1.24411
    ## Proportion of Variance  0.9865 0.00944 0.00402
    ## Cumulative Proportion   0.9865 0.99598 1.00000

``` r
# component loadings for each observation
tidy(pca_fit)
```

    ## # A tibble: 432 × 3
    ##    row      PC    value
    ##    <chr> <dbl>    <dbl>
    ##  1 1         1 -14.8   
    ##  2 1         2   1.05  
    ##  3 1         3  -1.01  
    ##  4 2         1 -14.8   
    ##  5 2         2   0.0756
    ##  6 2         3  -1.23  
    ##  7 3         1 -14.8   
    ##  8 3         2   1.05  
    ##  9 3         3  -1.01  
    ## 10 4         1 -14.7   
    ## # ℹ 422 more rows
…
