…
The `population` dataset contains the population of different countries
over time. Currently it is in long format: the identifying variables are
`country` and `year`, and the variable of interest is `population`.

We can convert it to wide format where the unit of observation is the
country, and we have different variables for the population in every
year.

``` r
# convert the data to wide format with country as the unit of observation
pivot_wider(population, names_from = year, values_from = population)
```

    ## # A tibble: 219 × 20
    ##    country       `1995` `1996` `1997` `1998` `1999` `2000` `2001` `2002` `2003` `2004` `2005` `2006` `2007` `2008` `2009` `2010` `2011`
    ##    <chr>          <dbl>  <dbl>  <dbl>  <dbl>  <dbl>  <dbl>  <dbl>  <dbl>  <dbl>  <dbl>  <dbl>  <dbl>  <dbl>  <dbl>  <dbl>  <dbl>  <dbl>
    ##  1 Afghanistan   1.76e7 1.84e7 1.90e7 1.95e7 2.00e7 2.06e7 2.13e7 2.22e7 2.31e7 2.40e7 2.49e7 2.56e7 2.63e7 2.70e7 2.77e7 2.84e7 2.91e7
    ##  2 Albania       3.36e6 3.34e6 3.33e6 3.33e6 3.32e6 3.30e6 3.29e6 3.26e6 3.24e6 3.22e6 3.20e6 3.18e6 3.17e6 3.16e6 3.15e6 3.15e6 3.15e6
    ##  3 Algeria       2.93e7 2.98e7 3.03e7 3.08e7 3.13e7 3.17e7 3.22e7 3.26e7 3.30e7 3.35e7 3.40e7 3.45e7 3.51e7 3.57e7 3.64e7 3.71e7 3.78e7
    ##  4 American Sam… 5.29e4 5.39e4 5.49e4 5.59e4 5.68e4 5.75e4 5.82e4 5.87e4 5.91e4 5.93e4 5.91e4 5.87e4 5.79e4 5.71e4 5.62e4 5.56e4 5.53e4
    ##  5 Andorra       6.39e4 6.43e4 6.41e4 6.38e4 6.41e4 6.54e4 6.80e4 7.16e4 7.56e4 7.91e4 8.12e4 8.19e4 8.13e4 8.00e4 7.87e4 7.79e4 7.79e4
    ##  6 Angola        1.21e7 1.25e7 1.28e7 1.31e7 1.35e7 1.39e7 1.44e7 1.49e7 1.54e7 1.60e7 1.65e7 1.71e7 1.77e7 1.83e7 1.89e7 1.95e7 2.02e7
    ##  7 Anguilla      9.81e3 1.01e4 1.03e4 1.05e4 1.08e4 1.11e4 1.14e4 1.17e4 1.20e4 1.23e4 1.26e4 1.29e4 1.31e4 1.34e4 1.36e4 1.38e4 1.40e4
    ##  8 Antigua and … 6.83e4 7.02e4 7.22e4 7.42e4 7.60e4 7.76e4 7.90e4 8.00e4 8.09e4 8.17e4 8.26e4 8.35e4 8.44e4 8.53e4 8.63e4 8.72e4 8.82e4
    ##  9 Argentina     3.48e7 3.53e7 3.57e7 3.61e7 3.65e7 3.69e7 3.73e7 3.76e7 3.80e7 3.83e7 3.86e7 3.90e7 3.93e7 3.97e7 4.00e7 4.04e7 4.07e7
    ## 10 Armenia       3.22e6 3.17e6 3.14e6 3.11e6 3.09e6 3.08e6 3.06e6 3.05e6 3.04e6 3.03e6 3.01e6 3.00e6 2.99e6 2.98e6 2.97e6 2.96e6 2.96e6
    ## # ℹ 209 more rows
    ## # ℹ 2 more variables: `2012` <dbl>, `2013` <dbl>
…
Pivoting is reversible, so we can convert `population_wide` back to long
format with the `pivot_longer()` function. We want to take the years as
the variable names, and the population as the values – instead of
listing all years as the columns we want to convert, we can say that we
want to pivot all columns except `country`.

``` r
# convert the data back to long format
pivot_longer(population_wide, cols = -country, names_to = "year", values_to = "population")
```

    ## # A tibble: 4,161 × 3
    ##    country     year  population
    ##    <chr>       <chr>      <dbl>
    ##  1 Afghanistan 1995    17586073
    ##  2 Afghanistan 1996    18415307
    ##  3 Afghanistan 1997    19021226
    ##  4 Afghanistan 1998    19496836
    ##  5 Afghanistan 1999    19987071
    ##  6 Afghanistan 2000    20595360
    ##  7 Afghanistan 2001    21347782
    ##  8 Afghanistan 2002    22202806
    ##  9 Afghanistan 2003    23116142
    ## 10 Afghanistan 2004    24018682
    ## # ℹ 4,151 more rows
…
