…
    ## # A tibble: 5 × 2
    ##   cut           n
    ##   <ord>     <int>
    ## 1 Fair       1610
    ## 2 Good       4906
    ## 3 Very Good 12082
    ## 4 Premium   13791
    ## 5 Ideal     21551

``` r
# joint frequency distribution
count(diamonds, cut, color)
```

    ## # A tibble: 35 × 3
    ##    cut   color     n
    ##    <ord> <ord> <int>
    ##  1 Fair  D       163
    ##  2 Fair  E       224
    ##  3 Fair  F       312
    ##  4 Fair  G       314
    ##  5 Fair  H       303
    ##  6 Fair  I       175
    ##  7 Fair  J       119
    ##  8 Good  D       662
    ##  9 Good  E       933
    ## 10 Good  F       909
    ## # ℹ 25 more rows
…
