…
    ## [1] 640

Not all of the 705 MEPs of term 2019-2024 are represented in the data.

# Differences between member states

``` r
# count the number of MEPs per country
MEPs |>
  count(country, sort = TRUE)
```

    ## # A tibble: 27 × 2
    ##    country         n
    ##    <chr>       <int>
    ##  1 Germany        98
    ##  2 France         73
    ##  3 Italy          65
    ##  4 Spain          56
    ##  5 Poland         40
    ##  6 Netherlands    29
    ##  7 Romania        28
    ##  8 Sweden         25
    ##  9 Hungary        21
    ## 10 Belgium        19
    ## # ℹ 17 more rows

``` r
# count the number of meetings per country
meetings |> 
  count(country, sort = TRUE)
```

    ## # A tibble: 27 × 2
    ##    country         n
    ##    <chr>       <int>
    ##  1 Germany     17231
    ##  2 France       9009
    ##  3 Spain        5665
    ##  4 Finland      4756
    ##  5 Netherlands  4645
    ##  6 Sweden       4575
    ##  7 Denmark      3036
    ##  8 Italy        2652
    ##  9 Belgium      2644
    ## 10 Austria      2106
    ## # ℹ 17 more rows
…
We can combine this information with the political group of the MEP to
see which combination of political groups and roles are most common.

``` r
meetings |> 
  count(political_group, member_capacity, sort = TRUE)
```

    ## # A tibble: 53 × 3
    ##    political_group member_capacity       n
    ##    <chr>           <chr>             <int>
    ##  1 S&D             Member            12955
    ##  2 Greens          Member            11435
    ##  3 Renew           Member             9547
    ##  4 EPP             Member             7257
    ##  5 S&D             Rapporteur         3184
    ##  6 EPP             Rapporteur         2684
    ##  7 Renew           Shadow rapporteur  2480
    ##  8 S&D             Shadow rapporteur  2314
    ##  9 Greens          Shadow rapporteur  2257
    ## 10 the Left        Member             2013
    ## # ℹ 43 more rows
…
