…
## Filtering observations

If we want to keep only a subset of observations, we can use the
`filter()` function. We can specify a logical condition as the argument
to `filter()`, and only observations that meet that condition will be
kept. For example, to keep only students who are over 21 years old, we
can use the following code:

``` r
filter(data, age > 21)
```

    ## # A tibble: 27 × 9
    ##       id   age sex    scholarship additional_work reading notes listening grade
    ##    <dbl> <dbl> <chr>        <dbl> <lgl>           <lgl>   <lgl> <lgl>     <dbl>
    ##  1  5005    22 Male            50 FALSE           TRUE    FALSE TRUE          4
    ##  2  5015    26 Male            75 TRUE            FALSE   FALSE TRUE          4
    ##  3  5016    22 Male            50 FALSE           FALSE   TRUE  FALSE         4
    ##  4  5018    22 Male            50 FALSE           TRUE    FALSE FALSE         4
    ##  5  5023    22 Male            50 TRUE            TRUE    TRUE  TRUE          3
    ##  6  5024    25 Male            25 TRUE            TRUE    TRUE  FALSE         4
    ##  7  5029    24 Male            50 FALSE           FALSE   FALSE FALSE         3
    ##  8  5032    25 Male            50 TRUE            FALSE   TRUE  FALSE         3
    ##  9  5040    22 Female          50 FALSE           FALSE   TRUE  TRUE          4
    ## 10  5042    24 Male            50 TRUE            FALSE   TRUE  FALSE         4
    ## # ℹ 17 more rows

We can also apply logical conditions to character variables, e.g. to
keep only students who went to a private high school and who did not
receive a failing grade. Filters can be combined with AND (`,` or `&`)
and OR (`|`) operators into a single function. Note the use of quotation
marks around character values in the logical condition and the double
equal sign `==` to denote equality and `!=` for “not equal”.

``` r
filter(data, sex == "Male", grade != 0) 
```

    ## # A tibble: 87 × 9
    ##       id   age sex   scholarship additional_work reading notes listening grade
    ##    <dbl> <dbl> <chr>       <dbl> <lgl>           <lgl>   <lgl> <lgl>     <dbl>
    ##  1  5001    21 Male           50 TRUE            TRUE    TRUE  FALSE         4
    ##  2  5002    20 Male           50 TRUE            TRUE    FALSE TRUE          4
    ##  3  5003    21 Male           50 FALSE           FALSE   FALSE FALSE         4
    ##  4  5005    22 Male           50 FALSE           TRUE    FALSE TRUE          4
    ##  5  5006    20 Male           50 FALSE           TRUE    FALSE TRUE          4
    ##  6  5007    18 Male           75 FALSE           FALSE   TRUE  TRUE          2
    ##  7  5015    26 Male           75 TRUE            FALSE   FALSE TRUE          4
    ##  8  5016    22 Male           50 FALSE           FALSE   TRUE  FALSE         4
    ##  9  5018    22 Male           50 FALSE           TRUE    FALSE FALSE         4
    ## 10  5020    18 Male           50 FALSE           FALSE   FALSE TRUE          3
    ## # ℹ 77 more rows

Another useful logical operator is `%in%`, which allows you to filter
observations based on a list of values. For example, to keep only
students who receive either 75% or 100% scholarships, we can use the
following code:

``` r
filter(data, scholarship %in% c(75, 100))
```

    ## # A tibble: 65 × 9
    ##       id   age sex    scholarship additional_work reading notes listening grade
    ##    <dbl> <dbl> <chr>        <dbl> <lgl>           <lgl>   <lgl> <lgl>     <dbl>
    ##  1  5007    18 Male            75 FALSE           FALSE   TRUE  TRUE          2
    ##  2  5012    18 Female          75 TRUE            FALSE   TRUE  FALSE         0
    ##  3  5013    18 Female          75 FALSE           TRUE    FALSE FALSE         0
    ##  4  5014    19 Female         100 FALSE           TRUE    FALSE FALSE         4
    ##  5  5015    26 Male            75 TRUE            FALSE   FALSE TRUE          4
    ##  6  5017    18 Female         100 FALSE           TRUE    FALSE FALSE         4
    ##  7  5019    18 Female          75 FALSE           TRUE    FALSE FALSE         4
    ##  8  5021    18 Male           100 TRUE            FALSE   FALSE TRUE          4
    ##  9  5022    18 Male           100 FALSE           FALSE   FALSE FALSE         4
    ## 10  5030    19 Male            75 FALSE           FALSE   FALSE TRUE          2
    ## # ℹ 55 more rows

## Selecting variables

If we want to keep only a subset of variables, we can use the `select()`
function. We can specify the variables we want to keep (or exclude, with
`-` signs) as the arguments to `select()`, and only those variables will
be kept. For example, to keep only the `Id` and `Student_Age` variables,
we can use the following code:

``` r
select(data, id, age)
```

    ## # A tibble: 145 × 2
    ##       id   age
    ##    <dbl> <dbl>
    ##  1  5001    21
    ##  2  5002    20
    ##  3  5003    21
    ##  4  5004    18
    ##  5  5005    22
    ##  6  5006    20
    ##  7  5007    18
    ##  8  5008    18
    ##  9  5009    19
    ## 10  5010    21
    ## # ℹ 135 more rows

We can also select columns based on their location in the tibble or by
looking for patterns in the column names:

``` r
select(data, id:sex) # select a range of columns
```

    ## # A tibble: 145 × 3
    ##       id   age sex   
    ##    <dbl> <dbl> <chr> 
    ##  1  5001    21 Male  
    ##  2  5002    20 Male  
    ##  3  5003    21 Male  
    ##  4  5004    18 Female
    ##  5  5005    22 Male  
    ##  6  5006    20 Male  
    ##  7  5007    18 Male  
    ##  8  5008    18 Female
    ##  9  5009    19 Female
    ## 10  5010    21 Female
    ## # ℹ 135 more rows

``` r
select(data, starts_with("a")) # select columns that start with "a"
```

    ## # A tibble: 145 × 2
    ##      age additional_work
    ##    <dbl> <lgl>          
    ##  1    21 TRUE           
    ##  2    20 TRUE           
    ##  3    21 FALSE          
    ##  4    18 TRUE           
    ##  5    22 FALSE          
    ##  6    20 FALSE          
    ##  7    18 FALSE          
    ##  8    18 TRUE           
    ##  9    19 FALSE          
    ## 10    21 FALSE          
    ## # ℹ 135 more rows

``` r
select(data, -grade) # keep everything but "grade"
```

    ## # A tibble: 145 × 8
    ##       id   age sex    scholarship additional_work reading notes listening
    ##    <dbl> <dbl> <chr>        <dbl> <lgl>           <lgl>   <lgl> <lgl>    
    ##  1  5001    21 Male            50 TRUE            TRUE    TRUE  FALSE    
    ##  2  5002    20 Male            50 TRUE            TRUE    FALSE TRUE     
    ##  3  5003    21 Male            50 FALSE           FALSE   FALSE FALSE    
    ##  4  5004    18 Female          50 TRUE            FALSE   TRUE  FALSE    
    ##  5  5005    22 Male            50 FALSE           TRUE    FALSE TRUE     
    ##  6  5006    20 Male            50 FALSE           TRUE    FALSE TRUE     
    ##  7  5007    18 Male            75 FALSE           FALSE   TRUE  TRUE     
    ##  8  5008    18 Female          50 TRUE            FALSE   TRUE  TRUE     
    ##  9  5009    19 Female          50 FALSE           FALSE   FALSE FALSE    
    ## 10  5010    21 Female          50 FALSE           FALSE   TRUE  FALSE    
    ## # ℹ 135 more rows

A pipe workflow allows us to combine the filtering and selecting
operations into a single, step-by-step workflow:

``` r
data |> 
  filter(age > 21) |> 
  select(id, age)
```

    ## # A tibble: 27 × 2
    ##       id   age
    ##    <dbl> <dbl>
    ##  1  5005    22
    ##  2  5015    26
    ##  3  5016    22
    ##  4  5018    22
    ##  5  5023    22
    ##  6  5024    25
    ##  7  5029    24
    ##  8  5032    25
    ##  9  5040    22
    ## 10  5042    24
    ## # ℹ 17 more rows
…
``` r
data |> 
  # create new variables
  mutate(participation = reading & notes & listening,
         scholarship_decimal = scholarship / 100) |> 
  # keep only new variables and student id
  select(id, participation, scholarship_decimal)
```

    ## # A tibble: 145 × 3
    ##       id participation scholarship_decimal
    ##    <dbl> <lgl>                       <dbl>
    ##  1  5001 FALSE                        0.5 
    ##  2  5002 FALSE                        0.5 
    ##  3  5003 FALSE                        0.5 
    ##  4  5004 FALSE                        0.5 
    ##  5  5005 FALSE                        0.5 
    ##  6  5006 FALSE                        0.5 
    ##  7  5007 FALSE                        0.75
    ##  8  5008 FALSE                        0.5 
    ##  9  5009 FALSE                        0.5 
    ## 10  5010 FALSE                        0.5 
    ## # ℹ 135 more rows
…
