…
Wile we work with data, we often change our data sets quite a lot
depending on what we want to investigate, so it is necessary to cache
our data sets under different names. That way we always keep track of
which data is stored where, which is particularly important in
archaeology given the vastly different types of analysis we can conduct
with our data.

``` r
data_plotting <- data |> 
  select(Square, Spit, Material, Weight, Thick)

print(data_plotting)
```

    ## # A tibble: 9,752 × 5
    ##    Square  Spit Material Weight Thick
    ##    <chr>  <dbl> <chr>     <dbl> <dbl>
    ##  1 B          1 Chert      1.83  3.34
    ##  2 B          1 Chert      0.61  2.74
    ##  3 B          1 Chert      3.81  7.25
    ##  4 B          1 Chert      0.13  2.05
    ##  5 B          1 Chert      0.05  1.13
    ##  6 B          1 Chert      0.58  4.79
    ##  7 B          1 Chert      0.03  1.16
    ##  8 B          1 Chert      0.02  1.09
    ##  9 B          1 Chert      0.21  3.91
    ## 10 B          1 Chert      0.25  3.13
    ## # ℹ 9,742 more rows
…
``` r
data_plotting_2 <- data |> 
  filter(Square == "A")
```

Now, from these rows we only want light objects, lets say with a
`Weight` less than 10. We can do this by adding another condition to our
`filter()` with the `&` (“and”) operator.

``` r
data_plotting_2 |>
  filter(Square == "A" & Weight < 10)
```

    ## # A tibble: 4,416 × 48
    ##    Site  Square  Spit Group Artno Material Colour Weight Length Artclas  Cortex
    ##    <chr> <chr>  <dbl> <dbl> <dbl> <chr>    <chr>   <dbl>  <dbl> <chr>     <dbl>
    ##  1 J     A          1    NA  4332 Chert    Peach    1.74  18.3  Flake         0
    ##  2 J     A          1    NA  4333 Chert    Grey     1.64  20.5  Flake        10
    ##  3 J     A          1    NA  4334 Obsidian Black    0.12   9.53 Flake         0
    ##  4 J     A          1    NA  4335 Chert    Grey     2.12  17.6  Flake         0
    ##  5 J     A          1    NA  4336 Chert    Pink     2.25  19.3  RetF          0
    ##  6 J     A          1    NA  4337 Chert    Orange   4.88  25.1  Non-diag      0
    ##  7 J     A          1    NA  4338 Chert    White    8.95  21.0  Flake         0
    ##  8 J     A          1    NA  4339 Chert    Brown    3.02  20.1  Flake-b       0
    ##  9 J     A          1    NA  4340 Chert    Grey     2.71  19.5  Flake         0
    ## 10 J     A          1    NA  4341 Chert    Grey     1.31   9.36 Flake         0
    ## # ℹ 4,406 more rows
    ## # ℹ 37 more variables: Cortype <chr>, Initiat <chr>, Breaks <chr>, Noseg <dbl>,
    ## #   Platwid <dbl>, Plat <chr>, Focal <lgl>, Overhang <chr>, NoDS <dbl>,
    ## #   NoPS <dbl>, Rtch <chr>, Plat_2 <chr>, Focal_2 <lgl>, Overhang_2 <chr>,
    ## #   NoDS_2 <dbl>, NoPS_2 <dbl>, Rtch_2 <chr>, RetOri <chr>, Retype <chr>,
    ## #   Retloc <chr>, Retlen <dbl>, Retdep <dbl>, Portion <chr>, Heat <dbl>,
    ## #   EdgeDam <dbl>, Weathering <dbl>, Corerot <dbl>, RetScNo <dbl>, …
…
For now we will continue and add to our previous filters though.

We also want a thickness between 0.2 and 20. We can either do this by
adding two additional conditions, or by using the `between()` function.

``` r
data_plotting_2 |> 
  filter(Square == "A" & Weight < 10 & Thick > 0.2 & Thick < 20)
```

    ## # A tibble: 4,390 × 48
    ##    Site  Square  Spit Group Artno Material Colour Weight Length Artclas  Cortex
    ##    <chr> <chr>  <dbl> <dbl> <dbl> <chr>    <chr>   <dbl>  <dbl> <chr>     <dbl>
    ##  1 J     A          1    NA  4332 Chert    Peach    1.74  18.3  Flake         0
    ##  2 J     A          1    NA  4333 Chert    Grey     1.64  20.5  Flake        10
    ##  3 J     A          1    NA  4334 Obsidian Black    0.12   9.53 Flake         0
    ##  4 J     A          1    NA  4335 Chert    Grey     2.12  17.6  Flake         0
    ##  5 J     A          1    NA  4336 Chert    Pink     2.25  19.3  RetF          0
    ##  6 J     A          1    NA  4337 Chert    Orange   4.88  25.1  Non-diag      0
    ##  7 J     A          1    NA  4338 Chert    White    8.95  21.0  Flake         0
    ##  8 J     A          1    NA  4339 Chert    Brown    3.02  20.1  Flake-b       0
    ##  9 J     A          1    NA  4340 Chert    Grey     2.71  19.5  Flake         0
    ## 10 J     A          1    NA  4341 Chert    Grey     1.31   9.36 Flake         0
    ## # ℹ 4,380 more rows
    ## # ℹ 37 more variables: Cortype <chr>, Initiat <chr>, Breaks <chr>, Noseg <dbl>,
    ## #   Platwid <dbl>, Plat <chr>, Focal <lgl>, Overhang <chr>, NoDS <dbl>,
    ## #   NoPS <dbl>, Rtch <chr>, Plat_2 <chr>, Focal_2 <lgl>, Overhang_2 <chr>,
    ## #   NoDS_2 <dbl>, NoPS_2 <dbl>, Rtch_2 <chr>, RetOri <chr>, Retype <chr>,
    ## #   Retloc <chr>, Retlen <dbl>, Retdep <dbl>, Portion <chr>, Heat <dbl>,
    ## #   EdgeDam <dbl>, Weathering <dbl>, Corerot <dbl>, RetScNo <dbl>, …

``` r
data_plotting_2 |> 
  filter(Square == "A" & Weight < 10 & between(Thick, 0.2, 20))
```

    ## # A tibble: 4,392 × 48
    ##    Site  Square  Spit Group Artno Material Colour Weight Length Artclas  Cortex
    ##    <chr> <chr>  <dbl> <dbl> <dbl> <chr>    <chr>   <dbl>  <dbl> <chr>     <dbl>
    ##  1 J     A          1    NA  4332 Chert    Peach    1.74  18.3  Flake         0
    ##  2 J     A          1    NA  4333 Chert    Grey     1.64  20.5  Flake        10
    ##  3 J     A          1    NA  4334 Obsidian Black    0.12   9.53 Flake         0
    ##  4 J     A          1    NA  4335 Chert    Grey     2.12  17.6  Flake         0
    ##  5 J     A          1    NA  4336 Chert    Pink     2.25  19.3  RetF          0
    ##  6 J     A          1    NA  4337 Chert    Orange   4.88  25.1  Non-diag      0
    ##  7 J     A          1    NA  4338 Chert    White    8.95  21.0  Flake         0
    ##  8 J     A          1    NA  4339 Chert    Brown    3.02  20.1  Flake-b       0
    ##  9 J     A          1    NA  4340 Chert    Grey     2.71  19.5  Flake         0
    ## 10 J     A          1    NA  4341 Chert    Grey     1.31   9.36 Flake         0
    ## # ℹ 4,382 more rows
    ## # ℹ 37 more variables: Cortype <chr>, Initiat <chr>, Breaks <chr>, Noseg <dbl>,
    ## #   Platwid <dbl>, Plat <chr>, Focal <lgl>, Overhang <chr>, NoDS <dbl>,
    ## #   NoPS <dbl>, Rtch <chr>, Plat_2 <chr>, Focal_2 <lgl>, Overhang_2 <chr>,
    ## #   NoDS_2 <dbl>, NoPS_2 <dbl>, Rtch_2 <chr>, RetOri <chr>, Retype <chr>,
    ## #   Retloc <chr>, Retlen <dbl>, Retdep <dbl>, Portion <chr>, Heat <dbl>,
    ## #   EdgeDam <dbl>, Weathering <dbl>, Corerot <dbl>, RetScNo <dbl>, …
…
