…
We now want to get into plotting our data. For this we are only
interested in the `Square`, `Spit`, `Material`, `Weight` and `Thick`
columns.

``` r
plotting_data <- data %>% 
  select(Square, Spit, Material, Weight, Thick)
plotting_data
```

    ## # A tibble: 9,752 × 5
    ##    Square  Spit Material Weight Thick
    ##    <chr>  <dbl> <chr>     <dbl> <dbl>
    ##  1 B          1 Chert      1.83  3.34
    ##  2 B          1 Chert      0.61  2.74
    ##  3 B          1 Chert      3.81  7.25
    ##  4 B          1 Chert      0.13  2.05
    ##  5 B          1 Chert      0.05  1.13
    ##  6 B          1 Chert      0.58  4.79
    ##  7 B          1 Chert      0.03  1.16
    ##  8 B          1 Chert      0.02  1.09
    ##  9 B          1 Chert      0.21  3.91
    ## 10 B          1 Chert      0.25  3.13
    ## # ℹ 9,742 more rows
…
We now only want to keep rows that have the “A” value for the `Square`
column. We can do this using the `filter()` function. Keep in mind that
“A” is a string, so we need to use quotation marks and two equal signs.

``` r
plotting_data %>% 
  filter(Square == "A")
```

    ## # A tibble: 4,436 × 5
    ##    Square  Spit Material Weight Thick
    ##    <chr>  <dbl> <chr>     <dbl> <dbl>
    ##  1 A          1 Chert      1.74  4.37
    ##  2 A          1 Chert      1.64  4.09
    ##  3 A          1 Obsidian   0.12  1.41
    ##  4 A          1 Chert      2.12  5.96
    ##  5 A          1 Chert      2.25  7.62
    ##  6 A          1 Chert      4.88  8.97
    ##  7 A          1 Chert      8.95 16.0 
    ##  8 A          1 Chert      3.02  8.15
    ##  9 A          1 Chert      2.71  6.44
    ## 10 A          1 Chert      1.31  5.84
    ## # ℹ 4,426 more rows

Now, from these rows we only want light objects, lets say with a
`Weight` less than 10. We can do this by adding another filter.

``` r
plotting_data %>% 
  filter(Square == "A") %>% 
  filter(Weight < 10)
```

    ## # A tibble: 4,416 × 5
    ##    Square  Spit Material Weight Thick
    ##    <chr>  <dbl> <chr>     <dbl> <dbl>
    ##  1 A          1 Chert      1.74  4.37
    ##  2 A          1 Chert      1.64  4.09
    ##  3 A          1 Obsidian   0.12  1.41
    ##  4 A          1 Chert      2.12  5.96
    ##  5 A          1 Chert      2.25  7.62
    ##  6 A          1 Chert      4.88  8.97
    ##  7 A          1 Chert      8.95 16.0 
    ##  8 A          1 Chert      3.02  8.15
    ##  9 A          1 Chert      2.71  6.44
    ## 10 A          1 Chert      1.31  5.84
    ## # ℹ 4,406 more rows

And a thickness between 0.2 and 20. We can either do this by adding two
filters, or by using the `between()` function. Note that there is an
important difference between \> and \>=, and \< and \<=.

``` r
plotting_data %>% 
  filter(Square == "A") %>% 
  filter(Weight < 10) %>% 
  filter(Thick > 0.2) %>% 
  filter(Thick < 20)
```

    ## # A tibble: 4,390 × 5
    ##    Square  Spit Material Weight Thick
    ##    <chr>  <dbl> <chr>     <dbl> <dbl>
    ##  1 A          1 Chert      1.74  4.37
    ##  2 A          1 Chert      1.64  4.09
    ##  3 A          1 Obsidian   0.12  1.41
    ##  4 A          1 Chert      2.12  5.96
    ##  5 A          1 Chert      2.25  7.62
    ##  6 A          1 Chert      4.88  8.97
    ##  7 A          1 Chert      8.95 16.0 
    ##  8 A          1 Chert      3.02  8.15
    ##  9 A          1 Chert      2.71  6.44
    ## 10 A          1 Chert      1.31  5.84
    ## # ℹ 4,380 more rows

``` r
plotting_data %>% 
  filter(Square == "A") %>% 
  filter(Weight < 10) %>% 
  filter(between(Thick, 0.2, 20))
```

    ## # A tibble: 4,392 × 5
    ##    Square  Spit Material Weight Thick
    ##    <chr>  <dbl> <chr>     <dbl> <dbl>
    ##  1 A          1 Chert      1.74  4.37
    ##  2 A          1 Chert      1.64  4.09
    ##  3 A          1 Obsidian   0.12  1.41
    ##  4 A          1 Chert      2.12  5.96
    ##  5 A          1 Chert      2.25  7.62
    ##  6 A          1 Chert      4.88  8.97
    ##  7 A          1 Chert      8.95 16.0 
    ##  8 A          1 Chert      3.02  8.15
    ##  9 A          1 Chert      2.71  6.44
    ## 10 A          1 Chert      1.31  5.84
    ## # ℹ 4,382 more rows

Alternatively, you can combine them in one filter function.

``` r
plotting_data %>%
  filter(Square == "A" & Weight < 10 & between(Thick, 0.2, 20))
```

    ## # A tibble: 4,392 × 5
    ##    Square  Spit Material Weight Thick
    ##    <chr>  <dbl> <chr>     <dbl> <dbl>
    ##  1 A          1 Chert      1.74  4.37
    ##  2 A          1 Chert      1.64  4.09
    ##  3 A          1 Obsidian   0.12  1.41
    ##  4 A          1 Chert      2.12  5.96
    ##  5 A          1 Chert      2.25  7.62
    ##  6 A          1 Chert      4.88  8.97
    ##  7 A          1 Chert      8.95 16.0 
    ##  8 A          1 Chert      3.02  8.15
    ##  9 A          1 Chert      2.71  6.44
    ## 10 A          1 Chert      1.31  5.84
    ## # ℹ 4,382 more rows

We also don’t want rows that have `NA` values in the `Material` column.

``` r
plotting_data %>%
  filter(Square == "A") %>% 
  filter(Weight < 10) %>% 
  filter(between(Thick, 0.2, 20)) %>% 
  drop_na(Material)
```

    ## # A tibble: 4,392 × 5
    ##    Square  Spit Material Weight Thick
    ##    <chr>  <dbl> <chr>     <dbl> <dbl>
    ##  1 A          1 Chert      1.74  4.37
    ##  2 A          1 Chert      1.64  4.09
    ##  3 A          1 Obsidian   0.12  1.41
    ##  4 A          1 Chert      2.12  5.96
    ##  5 A          1 Chert      2.25  7.62
    ##  6 A          1 Chert      4.88  8.97
    ##  7 A          1 Chert      8.95 16.0 
    ##  8 A          1 Chert      3.02  8.15
    ##  9 A          1 Chert      2.71  6.44
    ## 10 A          1 Chert      1.31  5.84
    ## # ℹ 4,382 more rows
…
